{
  "fb_banner": "309673607713706_309673797713687",
  "fb_interstitial": "309673607713706_309673851047015",
  "fb_native": "309673607713706_309673954380338",
  "admob_pub_id": "pub-8900201259755949",
  "admob_app_id": "ca-app-pub-8900201259755949~6323645868",
  "admob_banner": "ca-app-pub-8900201259755949/8838128564",
  "admob_interstitial": "ca-app-pub-8900201259755949/5010564193",
  "admob_native": "ca-app-pub-8900201259755949/6211965224",
  "admob_open": "ca-app-pub-8900201259755949/4898883550",
  "applovin_banner": "f207ade810263b7a",
  "applovin_intestitial": "b9d941d19771102e",
  "applovin_native": "766555ce2e9cf705",
  "applovin_open": "b71c9fdbb9fa89c6",
  "new_pkg": "com.freediamond.guideandfreediamonds.guideandfreediamondsforfree.ffdiamond.freediamondapp.guideanddiamondsforff.diamondfreefire",
  "is_version": "false",
  "update_checker":true,
  "ad_type": "0"
}
